Label	Area	Mean	Min	Max	Angle	Length
drone_1fps.avi:scale:3.00 s	0.066	168.167	122	191.385	-7.125	1.000
drone_1fps.avi:dds_1:36.00 s	1.401	119.916	0	208.333	-90.000	22.491
drone_1fps.avi:dds_2:42.00 s	1.208	124.377	0	192.667	-90.000	19.384
drone_1fps.avi:dds_3:83.00 s	1.224	119.302	0	170.667	-90.000	19.633
drone_1fps.avi:dds_4:128.00 s	1.478	117.721	0	186.000	-90.000	23.733
drone_1fps.avi:dds_5:156.00 s	2.131	116.740	0	203.000	-90.000	34.233
drone_1fps.avi:dds_6:170.00 s	1.891	118.750	0	175.667	-90.000	30.381
drone_1fps.avi:dds_7:179.00 s	1.868	118.249	0	245.667	-90.000	30.009
drone_1fps.avi:dds_8:193.00 s	1.289	124.304	0	211.000	-90.000	20.689
drone_1fps.avi:dds_9:217.00 s	1.486	121.745	0	178.000	-90.000	23.858
drone_1fps.avi:dds_10:274.00 s	1.567	119.296	0	198.000	-90.000	25.162
drone_1fps.avi:dds_11:295.00 s	1.228	122.830	0	236.667	-90.000	19.695
drone_1fps.avi:dds_12:310.00 s	1.355	120.622	0	199.333	-90.000	21.745
drone_1fps.avi:dds_13:355.00 s	1.170	117.144	0	170.667	-90.000	18.763
drone_1fps.avi:land:370.00 s	0.286	135.851	0	250.000	-90.000	4.535
drone_1fps.avi:das_1:36.00 s	0.000	0.000	0	0.000	-59.848	0.000
drone_1fps.avi:das_2:42.00 s	0.000	0.000	0	0.000	0.000	0.000
drone_1fps.avi:das_3:83.00 s	0.000	0.000	0	0.000	97.001	0.000
drone_1fps.avi:das_4:128.00 s	0.000	0.000	0	0.000	168.486	0.000
drone_1fps.avi:das_5:156.00 s	0.000	0.000	0	0.000	-98.403	0.000
drone_1fps.avi:das_6:170.00 s	0.000	0.000	0	0.000	48.094	0.000
drone_1fps.avi:das_7:179.00 s	0.000	0.000	0	0.000	-121.855	0.000
drone_1fps.avi:das_8:193.00 s	0.000	0.000	0	0.000	-76.062	0.000
drone_1fps.avi:das_9:217.00 s	0.000	0.000	0	0.000	-121.589	0.000
drone_1fps.avi:das_10:274.00 s	0.000	0.000	0	0.000	103.810	0.000
drone_1fps.avi:das_11:295.00 s	0.000	0.000	0	0.000	110.875	0.000
drone_1fps.avi:das_12:310.00 s	0.000	0.000	0	0.000	101.788	0.000
drone_1fps.avi:das_13:355.00 s	0.000	0.000	0	0.000	158.709	0.000
drone_1fps.avi:180:371.00 s	0.000	0.000	0	0.000	180.000	0.000
drone_1fps.avi:90:371.00 s	0.000	0.000	0	0.000	90.000	0.000
drone_1fps.avi:270:371.00 s	0.000	0.000	0	0.000	-90.000	0.000
drone_1fps.avi:0:371.00 s	0.000	0.000	0	0.000	0.000	0.000
drone_1fps.avi:902:371.00 s	0.000	0.000	0	0.000	90.000	0.000
drone_1fps.avi:2702:371.00 s	0.000	0.000	0	0.000	89.091	0.000
